<svg width="51" height="46" viewBox="0 0 51 46" fill="none" xmlns="http://www.w3.org/2000/svg">
<path d="M6.85499 6.8267V0.333191H11.2028V6.8267H17.7246V11.1557H11.2028V17.6492H6.85499V11.1557H0.333252V6.8267H6.85499ZM13.3767 19.8137V13.3202H19.8985V6.8267H35.1159L39.0941 11.1557H45.9854C48.3767 11.1557 50.3333 13.1038 50.3333 15.4847V41.4587C50.3333 43.8397 48.3767 45.7877 45.9854 45.7877H11.2028C8.81151 45.7877 6.85499 43.8397 6.85499 41.4587V19.8137H13.3767ZM28.5941 39.2942C34.5941 39.2942 39.4637 34.4457 39.4637 28.4717C39.4637 22.4977 34.5941 17.6492 28.5941 17.6492C22.5941 17.6492 17.7246 22.4977 17.7246 28.4717C17.7246 34.4457 22.5941 39.2942 28.5941 39.2942ZM21.6376 28.4717C21.6376 32.3029 24.7463 35.3981 28.5941 35.3981C32.4419 35.3981 35.5506 32.3029 35.5506 28.4717C35.5506 24.6406 32.4419 21.5453 28.5941 21.5453C24.7463 21.5453 21.6376 24.6406 21.6376 28.4717Z" fill="white"/>
</svg>
