<svg width="28" height="29" viewBox="0 0 28 29" fill="none" xmlns="http://www.w3.org/2000/svg">
<rect y="0.588257" width="28" height="28" rx="14" fill="#E9F5FF"/>
<path d="M17.992 21.5882C17.8557 21.5878 17.7199 21.5726 17.5868 21.5426C15.053 21.0066 12.7187 19.7499 10.8526 17.917C9.02629 16.0801 7.75965 13.7413 7.20592 11.1836C7.14063 10.8649 7.15666 10.5343 7.25246 10.2237C7.34826 9.91308 7.52061 9.63292 7.75292 9.41015L9.37367 7.81486C9.45645 7.7348 9.55481 7.6735 9.66233 7.63494C9.76985 7.59639 9.88411 7.58145 9.99766 7.59111C10.1154 7.60367 10.229 7.64245 10.3305 7.70473C10.432 7.76702 10.5189 7.85128 10.5852 7.9516L12.6111 11.0137C12.6871 11.1325 12.7238 11.2732 12.7157 11.4149C12.7077 11.5566 12.6554 11.692 12.5665 11.801L11.5495 13.0441C11.9546 13.9609 12.5282 14.7894 13.2392 15.4847C13.9455 16.2052 14.7804 16.7805 15.6986 17.1794L16.9588 16.156C17.0646 16.0704 17.1934 16.0198 17.328 16.011C17.4626 16.0021 17.5967 16.0353 17.7124 16.1062L20.7716 18.1283C20.8766 18.1924 20.966 18.28 21.0332 18.3844C21.1004 18.4889 21.1436 18.6076 21.1596 18.7315C21.1755 18.8555 21.1639 18.9816 21.1255 19.1003C21.087 19.219 21.0228 19.3272 20.9377 19.417L19.3575 21.0164C19.178 21.1991 18.9649 21.3436 18.7306 21.4418C18.4962 21.5399 18.2452 21.5897 17.992 21.5882ZM9.93283 8.41154L8.31208 10.0068C8.18139 10.1314 8.08465 10.2885 8.03136 10.4629C7.97808 10.6373 7.97009 10.8228 8.00819 11.0013C8.52307 13.4013 9.70662 15.5975 11.4158 17.3245C13.172 19.0488 15.3687 20.2309 17.7529 20.7346C17.9334 20.7732 18.1204 20.7654 18.2972 20.7119C18.474 20.6584 18.635 20.5608 18.7659 20.428L20.3461 18.8286L17.3923 16.8769L16.039 17.9791C15.9872 18.0211 15.9261 18.0494 15.8612 18.0617C15.7962 18.074 15.7293 18.0698 15.6662 18.0496C14.5425 17.6262 13.5242 16.9541 12.684 16.0814C11.8151 15.2515 11.1405 14.2317 10.7108 13.098C10.6926 13.0293 10.692 12.9571 10.709 12.8881C10.7261 12.8192 10.7602 12.7559 10.808 12.7043L11.902 11.3659L9.93283 8.41154Z" fill="#2F80ED"/>
</svg>
