<svg width="17" height="22" viewBox="0 0 17 22" fill="none" xmlns="http://www.w3.org/2000/svg">
<path d="M9 16.6C10.4852 16.6 11.9096 16.01 12.9598 14.9598C14.01 13.9096 14.6 12.4852 14.6 11C14.6 9.51479 14.01 8.09041 12.9598 7.0402C11.9096 5.99 10.4852 5.4 9 5.4C7.51479 5.4 6.09041 5.99 5.0402 7.0402C3.99 8.09041 3.4 9.51479 3.4 11C3.4 12.4852 3.99 13.9096 5.0402 14.9598C6.09041 16.01 7.51479 16.6 9 16.6ZM9 4C9.91925 4 10.8295 4.18106 11.6788 4.53284C12.5281 4.88463 13.2997 5.40024 13.9497 6.05025C14.5998 6.70026 15.1154 7.47194 15.4672 8.32122C15.8189 9.17049 16 10.0807 16 11C16 12.8565 15.2625 14.637 13.9497 15.9497C12.637 17.2625 10.8565 18 9 18C5.129 18 2 14.85 2 11C2 9.14348 2.7375 7.36301 4.05025 6.05025C5.36301 4.7375 7.14348 4 9 4ZM9.35 7.5V11.175L12.5 13.044L11.975 13.905L8.3 11.7V7.5H9.35Z" fill="white"/>
</svg>
